{
  "page": 1,
  "per_page": 6,
  "total": 12,
  "total_pages": 2,
  "data": {
    "customer1": {
      "title": "Sign In"
    },
    "customer": {
      "title": "Hi, Christina",
      "button": {
        "title": "",
        "url": "#"
      },
      "nav": [
        {
          "id": 0,
          "text": "My Profile",
          "url": "#",
          "caption": "Name, Password, etc."
        },
        {
          "id": 1,
          "text": "My Orders",
          "url": "#",
          "caption": "Track & Manage"
        },
        {
          "id": 2,
          "text": "My Payments",
          "url": "#",
          "caption": "Mastercard 2630"
        },
        {
          "id": 3,
          "text": "My Addresses",
          "url": "#",
          "caption": "18 Harrison Avenue"
        },
        {
          "id": 4,
          "text": "My Favorites",
          "url": "#",
          "caption": "5 items"
        },
        {
          "id": 5,
          "text": "MyMaurices Rewards",
          "url": "#",
          "caption": "200 pts"
        }
      ],
      "templates":[
        {
          "path": "./callout/callout-item",
          "class": "customer-menu-callout",
          "data": {
            "id": 0,
            "title": "Get Rewarded!",
            "text": "Earn 1 point for every dollar you spend. 100 pts = $5 reward.",
            "icon": "/assets/images/cell_1.png"
          }
        }
      ]
    },
    "minicart": {
      "subtotal": "$188.66",
      "items": [
        {
          "id": 0,
          "title": "Kimono Cowl Neck Poncho",
          "price": "$34.00",
          "qty": 1,
          "image": "/assets/images/search/s1.png",
          "url": "#",
          "options": [
            {
              "id": 0,
              "name": "Color",
              "value": "OFF-WHITE"
            },
            {
              "id": 1,
              "name": "Size",
              "value": "S/M"
            }
          ]
        },
        {
          "id": 1,
          "title": "Button-down Corduroy Skirt",
          "price": "$68.00",
          "qty": 2,
          "image": "/assets/images/search/s2.png",
          "url": "#",
          "options": [
            {
              "id": 0,
              "name": "Color",
              "value": "Rust"
            },
            {
              "id": 1,
              "name": "Size",
              "value": "6"
            }
          ]
        },
        {
          "id": 2,
          "title": "DenimFlex™ Dark Wash Utility Jegging",
          "price": "$39.00",
          "qty": 3,
          "image": "/assets/images/search/s3.png",
          "url": "#",
          "options": [
            {
              "id": 0,
              "name": "Color",
              "value": "Green"
            },
            {
              "id": 1,
              "name": "Size",
              "value": "Xl"
            }
          ]
        }
      ]
    },
    "store1": {
      "title": "Set Your Store"
    },
    "store": {
      "title": "Maurices Shoppes at Richland",
      "address": " 3553 Richland Ave W <br/>\n                                    Suite 120 <br/>\n                                    Aiken, SC   29801",
      "phone": "(803) 642-2257",
      "timeOpening": "open until 9pm",
      "time": "  Mon-Sat: 10am &mdash; 9pm <br/>\n                                    Sun: 1pm &mdash; 6pm"
    },
    "HeaderContent": {
      "announcement": {
        "text": "ONLINE ONLY — Get $25 off every $75 you spend!",
        "link": {
          "text": "Read More",
          "url": "#"
        }
      },
      "top_bar": {
      },
      "middle_bar": {
      }
    },
    "footerContent": {
      "calloutItems": [
        {
          "id": 0,
          "title": "MyMaurices Rewards",
          "text": "Earn points every time you shop!",
          "icon": "/assets/images/cell_1.png",
          "nav": [
            {
              "id": 0,
              "text": "Learn More",
              "url": "#"
            },
            {
              "id": 1,
              "text": "Sign Up Free",
              "url": "#"
            }
          ]
        },
        {
          "id": 1,
          "title": "Maurices Credit Card",
          "text": "Free shipping & 10% off every order!",
          "icon": "/assets/images/cell_2.png",
          "nav": [
            {
              "id": 0,
              "text": "Learn More",
              "url": "#"
            },
            {
              "id": 1,
              "text": "Apply Now",
              "url": "#"
            }
          ]
        },
        {
          "id": 2,
          "title": "Refer a Friend",
          "text": "Get $10 off when you share the love!",
          "icon": "/assets/images/cell_3.png",
          "nav": [
            {
              "id": 0,
              "text": "Learn More",
              "url": "#"
            }
          ]
        }
      ],
      "columnFooter": {
        "columns": [
          {
            "id": 0,
            "nav": [
              {
                "id": 0,
                "icon": [
                  "fa",
                  "truck"
                ],
                "text": "Track an Order",
                "url": "#"
              },
              {
                "id": 1,
                "icon": [
                  "fas",
                  "search-location"
                ],
                "text": "Find a Store",
                "url": "#"
              },
              {
                "id": 2,
                "icon": [
                  "fas",
                  "book-open"
                ],
                "text": " Shop the Catalog",
                "url": "#"
              },
              {
                "id": 3,
                "icon": [
                  "fas",
                  "gift"
                ],
                "text": "Give a Gift Card",
                "url": "#"
              },
              {
                "id": 4,
                "icon": [
                  "far",
                  "comment-dots"
                ],
                "text": "Live Chat with Us",
                "url": "#"
              }
            ]
          },
          {
            "id": 1,
            "title": "Help",
            "nav": [
              {
                "id": 0,
                "text": "Ordering & Payment",
                "url": "#"
              },
              {
                "id": 1,
                "text": "Shipping & Handling",
                "url": "#"
              },
              {
                "id": 2,
                "text": "Returns & Exchanges",
                "url": "#"
              },
              {
                "id": 3,
                "text": "Size Charts",
                "url": "#"
              },
              {
                "id": 4,
                "text": "FAQs",
                "url": "#"
              }
            ]
          },
          {
            "id": 2,
            "title": "Company",
            "nav": [
              {
                "id": 0,
                "text": "About",
                "url": "#"
              },
              {
                "id": 1,
                "text": "Careers",
                "url": "#"
              },
              {
                "id": 2,
                "text": "Pressroom",
                "url": "#"
              },
              {
                "id": 3,
                "text": "Affiliate Program",
                "url": "#"
              },
              {
                "id": 4,
                "text": "Site Map",
                "url": "#"
              }
            ]
          },
          {
            "id": 3,
            "title": "Contact Us",
            "nav": [
              {
                "id": 0,
                "icon": [
                  "fas",
                  "comment"
                ],
                "text": "Live Chat",
                "url": "#"
              },
              {
                "id": 1,
                "icon": [
                  "fas",
                  "envelope"
                ],
                "text": "Email Us",
                "url": "#"
              },
              {
                "id": 2,
                "icon": [
                  "fas",
                  "phone-alt"
                ],
                "text": "1.866.977.1542",
                "url": "#"
              }
            ]
          }
        ],
        "signUp": {
          "title": "Sign Up for Emails",
          "msg": "123Get exclusive access to even more offers, new arrivals, style tips and more! <a href='#'>Sign Up Now</a>",
          "socialNav": [
            {
              "id": 0,
              "icon": [
                "fab",
                "facebook-f"
              ],
              "text": "Facebook",
              "url": "#"
            },
            {
              "id": 1,
              "icon": [
                "fab",
                "twitter"
              ],
              "text": "Twitter",
              "url": "#"
            },
            {
              "id": 2,
              "icon": [
                "fab",
                "instagram-square"
              ],
              "text": "Instagram",
              "url": "#"
            },
            {
              "id": 3,
              "icon": [
                "fab",
                "pinterest-p"
              ],
              "text": "Pinterest",
              "url": "#"
            },
            {
              "id": 4,
              "icon": [
                "fab",
                "youtube"
              ],
              "text": "Youtube",
              "url": "#"
            }
          ]
        }
      },
      "subfooter": {
        "copy": "© 2019 Maurices, Inc. All rights reserved.",
        "nav": [
          {
            "id": 0,
            "text": "Privacy Policy",
            "url": "#"
          },
          {
            "id": 1,
            "text": "Terms & Conditions",
            "url": "#"
          },
          {
            "id": 2,
            "text": "Supply Chain Transparency",
            "url": "#"
          }
        ]
      }
    }
  },
  "support": {
    "url": "https://reqres.in/#support-heading",
    "text": "To keep ReqRes free, contributions towards server costs are appreciated!"
  }
}